{
  "success": true,
  "readingList": [
    {
      "bookTitle": "어떻게 죽을 것인가",
      "author": "아툴 가완디 (지은이), 김희정 (옮긴이)",
      "isbn13": "9788960519091",
      "coverImgUrl": "https://image.aladin.co.kr/product/28908/80/cover200/896051909x_1.jpg",
      "link": "https://www.aladin.co.kr/shop/wproduct.aspx?ItemId=289088021&amp;partner=openAPI&amp;start=api",
      "tabType": 0,
      "bookStatus": "NOT_STARTED",
      "isFavorite": true,
      "readStartDt" : "2025-05-01",
      "readEndDt" : "2025-06-30"
    },
    {
      "bookTitle": "30개 도시로 읽는 영국사 1",
      "author": "김현수",
      "isbn13": "9791130661872",
      "coverImgUrl": "https://image.aladin.co.kr/product/35654/24/cover200/k122036815_1.jpg",
      "link": "https://www.aladin.co.kr/shop/wproduct.aspx?ItemId=289088021&amp;partner=openAPI&amp;start=api",
      "tabType": 0,
      "bookStatus": "COMPLETED",
      "isFavorite": true,
      "readStartDt" : "2025-05-01",
      "readEndDt" : "2025-06-30"
    },
    {
      "bookTitle": "삶이 흐르는 대로",
      "author": "해들리 블라호스 (지은이), 고건녕 (옮긴이)",
      "isbn13": "9791130653280",
      "coverImgUrl": "https://image.aladin.co.kr/product/34795/79/cover200/k362933229_1.jpg",
      "link": "https://www.aladin.co.kr/shop/wproduct.aspx?ItemId=289088021&amp;partner=openAPI&amp;start=api",
      "tabType": 0,
      "bookStatus": "NOT_STARTED",
      "isFavorite": true,
      "readStartDt" : "2025-05-01",
      "readEndDt" : "2025-06-30"
    },
    {
      "bookTitle": "인생의 방향은 언제든 바뀔 수 있다",
      "author": "조윤성 (지은이)",
      "isbn13": "9791130652986",
      "coverImgUrl": "https://image.aladin.co.kr/product/33995/39/cover200/k472930646_1.jpg",
      "link": "https://www.aladin.co.kr/shop/wproduct.aspx?ItemId=289088021&amp;partner=openAPI&amp;start=api",
      "tabType": 0,
      "bookStatus": "COMPLETED",
      "isFavorite": true,
      "readStartDt" : "2025-05-01",
      "readEndDt" : "2025-06-30"
    },
    {
      "bookTitle": "기억서점",
      "author": "정명섭 (지은이)",
      "isbn13": "9791165797102",
      "coverImgUrl": "https://image.aladin.co.kr/product/28083/21/cover200/k092734742_1.jpg",
      "link": "https://www.aladin.co.kr/shop/wproduct.aspx?ItemId=289088021&amp;partner=openAPI&amp;start=api",
      "tabType": 0,
      "bookStatus": "COMPLETED",
      "isFavorite": true,
      "readStartDt" : "2025-05-01",
      "readEndDt" : "2025-06-30"
    },
    {
      "bookTitle": "시티 뷰",
      "author": "우신영 (지은이)",
      "isbn13": "9791130647975",
      "coverImgUrl": "https://image.aladin.co.kr/product/34764/71/cover200/k522933926_1.jpg",
      "link": "https://www.aladin.co.kr/shop/wproduct.aspx?ItemId=289088021&amp;partner=openAPI&amp;start=api",
      "tabType": 0,
      "bookStatus": "COMPLETED",
      "isFavorite": true,
      "readStartDt" : "2025-05-01",
      "readEndDt" : "2025-06-30"
    },
    {
      "bookTitle": "보는 사람, 화가",
      "author": "최예선 (지은이)",
      "isbn13": "9791190710862",
      "coverImgUrl": "https://image.aladin.co.kr/product/34313/52/cover200/k912932472_1.jpg",
      "link": "https://www.aladin.co.kr/shop/wproduct.aspx?ItemId=289088021&amp;partner=openAPI&amp;start=api",
      "tabType": 0,
      "bookStatus": "NOT_STARTED",
      "isFavorite": true,
      "readStartDt" : "2025-05-01",
      "readEndDt" : "2025-06-30"
    },
    {
      "bookTitle": "트럼프 2.0 시대 - 글로벌 대격변이 시작된다",
      "author": "박종훈 (지은이)",
      "isbn13": "9791198987600",
      "coverImgUrl": "https://image.aladin.co.kr/product/35163/12/cover200/k362934121_1.jpg",
      "link": "https://www.aladin.co.kr/shop/wproduct.aspx?ItemId=289088021&amp;partner=openAPI&amp;start=api",
      "tabType": 0,
      "bookStatus": "IN_PROGRESS",
      "isFavorite": true,
      "readStartDt" : "2025-05-01",
      "readEndDt" : "2025-06-30"
    },
    {
      "bookTitle": "마음의 힘이 필요할 때 나는 달린다 - 정신과 의사가 말하는 달리기를 통해 얻는 것들",
      "author": "김세희 (지은이)",
      "isbn13": "9791192999616",
      "coverImgUrl": "https://image.aladin.co.kr/product/34881/68/cover200/k592933150_1.jpg",
      "link": "https://www.aladin.co.kr/shop/wproduct.aspx?ItemId=289088021&amp;partner=openAPI&amp;start=api",
      "tabType": 0,
      "bookStatus": "IN_PROGRESS",
      "isFavorite": true,
      "readStartDt" : "2025-05-01",
      "readEndDt" : "2025-06-30"
    },
    {
      "bookTitle": "내성적인 당신이 좋다 - 비로소 나에게서의 해방이기를",
      "author": "김진향 (지은이)",
      "isbn13": "9791185264752",
      "coverImgUrl": "https://image.aladin.co.kr/product/32461/81/cover200/k212935203_1.jpg",
      "link": "https://www.aladin.co.kr/shop/wproduct.aspx?ItemId=289088021&amp;partner=openAPI&amp;start=api",
      "tabType": 0,
      "bookStatus": "IN_PROGRESS",
      "isFavorite": true,
      "readStartDt" : "2025-05-01",
      "readEndDt" : "2025-06-30"
    },
    {
      "bookTitle": "사람아, 너의 꽃말은 외로움이다",
      "author": "이동영 (지은이), 이슬아 (그림)",
      "isbn13": "9791185264677",
      "coverImgUrl": "https://image.aladin.co.kr/product/31564/17/cover200/k052832450_2.jpg",
      "link": "https://www.aladin.co.kr/shop/wproduct.aspx?ItemId=289088021&amp;partner=openAPI&amp;start=api",
      "tabType": 0,
      "bookStatus": "IN_PROGRESS",
      "isFavorite": true,
      "readStartDt" : "2025-05-01",
      "readEndDt" : "2025-06-30"
    },
    {
      "bookTitle": "인어의 꿈",
      "author": "정담아 (지은이)",
      "isbn13": "9791198791337",
      "coverImgUrl": "https://image.aladin.co.kr/product/34291/23/cover200/k532932173_1.jpg",
      "link": "https://www.aladin.co.kr/shop/wproduct.aspx?ItemId=289088021&amp;partner=openAPI&amp;start=api",
      "tabType": 0,
      "bookStatus": "NOT_STARTED",
      "isFavorite": true,
      "readStartDt" : "2025-05-01",
      "readEndDt" : "2025-06-30"
    },
    {
      "bookTitle": "캐서린의 속도",
      "author": "전혜지 (지은이)",
      "isbn13": "9791198791313",
      "coverImgUrl": "https://image.aladin.co.kr/product/34291/25/cover200/k702932173_1.jpg",
      "link": "https://www.aladin.co.kr/shop/wproduct.aspx?ItemId=289088021&amp;partner=openAPI&amp;start=api",
      "tabType": 0,
      "bookStatus": "NOT_STARTED",
      "isFavorite": true,
      "readStartDt" : "2025-05-01",
      "readEndDt" : "2025-06-30"
    },
    {
      "bookTitle": "아일랜드 쌍둥이",
      "author": "홍숙영 (지은이)",
      "isbn13": "9791193235164",
      "coverImgUrl": "https://image.aladin.co.kr/product/33842/60/cover200/k432930091_1.jpg",
      "link": "https://www.aladin.co.kr/shop/wproduct.aspx?ItemId=289088021&amp;partner=openAPI&amp;start=api",
      "tabType": 0,
      "bookStatus": "NOT_STARTED",
      "isFavorite": true,
      "readStartDt" : "2025-05-01",
      "readEndDt" : "2025-06-30"
    },
    {
      "bookTitle": "소금꽃나무",
      "author": "김진숙 (지은이)",
      "isbn13": "9788990106384",
      "coverImgUrl": "https://image.aladin.co.kr/product/91/38/cover200/8990106389_3.jpg",
      "link": "https://www.aladin.co.kr/shop/wproduct.aspx?ItemId=289088021&amp;partner=openAPI&amp;start=api",
      "tabType": 0,
      "bookStatus": "NOT_STARTED",
      "isFavorite": true,
      "readStartDt" : "2025-05-01",
      "readEndDt" : "2025-06-30"
    },
    {
      "bookTitle": "나란히 걷는다는 것 - 늘 불안하고 외로운 우리들에게 필요한 일",
      "author": "이동희 (지은이)",
      "isbn13": "9791197162015",
      "coverImgUrl": "https://image.aladin.co.kr/product/33317/24/cover200/k532938581_1.jpg",
      "link": "https://www.aladin.co.kr/shop/wproduct.aspx?ItemId=289088021&amp;partner=openAPI&amp;start=api",
      "tabType": 0,
      "bookStatus": "NOT_STARTED",
      "isFavorite": true,
      "readStartDt" : "2025-05-01",
      "readEndDt" : "2025-06-30"
    },
    {
      "bookTitle": "상하이, 너를 위해 준비했어",
      "author": "농호 상하이 (지은이)",
      "isbn13": "9788933871935",
      "coverImgUrl": "https://image.aladin.co.kr/product/34291/21/cover200/k422932173_1.jpg",
      "link": "https://www.aladin.co.kr/shop/wproduct.aspx?ItemId=289088021&amp;partner=openAPI&amp;start=api",
      "tabType": 0,
      "bookStatus": "NOT_STARTED",
      "isFavorite": true,
      "readStartDt" : "2025-05-01",
      "readEndDt" : "2025-06-30"
    },
    {
      "bookTitle": "작별 일기 - 삶의 끝에 선 엄마를 기록하다",
      "author": "최현숙 (지은이)",
      "isbn13": "9788964373330",
      "coverImgUrl": "https://image.aladin.co.kr/product/20951/25/cover200/8964373332_1.jpg",
      "link": "https://www.aladin.co.kr/shop/wproduct.aspx?ItemId=289088021&amp;partner=openAPI&amp;start=api",
      "tabType": 0,
      "bookStatus": "NOT_STARTED",
      "isFavorite": true,
      "readStartDt" : "2025-05-01",
      "readEndDt" : "2025-06-30"
    },
    {
      "bookTitle": "안 들리지만, 그래도",
      "author": "이동희 (지은이)",
      "isbn13": "9791197162008",
      "coverImgUrl": "https://image.aladin.co.kr/product/25163/79/cover200/k692633682_1.jpg",
      "link": "https://www.aladin.co.kr/shop/wproduct.aspx?ItemId=289088021&amp;partner=openAPI&amp;start=api",
      "tabType": 0,
      "bookStatus": "NOT_STARTED",
      "isFavorite": true,
      "readStartDt" : "2025-05-01",
      "readEndDt" : "2025-06-30"
    },
    {
      "bookTitle": "지연된 정의 - 백수 기자와 파산 변호사의 재심 프로젝트",
      "author": "박상규 (지은이)",
      "isbn13": "9788964374023",
      "coverImgUrl": "https://image.aladin.co.kr/product/29403/52/cover200/8964374029_1.jpg",
      "link": "https://www.aladin.co.kr/shop/wproduct.aspx?ItemId=289088021&amp;partner=openAPI&amp;start=api",
      "tabType": 0,
      "bookStatus": "NOT_STARTED",
      "isFavorite": true,
      "readStartDt" : "2025-05-01",
      "readEndDt" : "2025-06-30"
    },
    {
      "bookTitle": "말을 못하면 들으면 된다",
      "author": "나카무라 아츠히코 (지은이), 양필성 (옮긴이)",
      "isbn13": "9791192886459",
      "coverImgUrl": "https://image.aladin.co.kr/product/33601/10/cover200/k132939708_1.jpg",
      "link": "https://www.aladin.co.kr/shop/wproduct.aspx?ItemId=289088021&amp;partner=openAPI&amp;start=api",
      "tabType": 0,
      "bookStatus": "NOT_STARTED",
      "isFavorite": true,
      "readStartDt" : "2025-05-01",
      "readEndDt" : "2025-06-30"
    }
  ],
  "page": {
    "size": 20,
    "number": 0,
    "totalElements": 30,
    "totalPages": 2
  }
}